 {
  "type": "FeatureCollection",
  "features": [
    {
      "type": "Feature",
      "properties": {},
      "geometry": {
        "type": "Polygon",
        "coordinates": [
          [
            [
              56.42578125,
              63.54855223203644
            ],
            [
              51.85546874999999,
              55.97379820507658
            ],
            [
              32.958984375,
              63.470144746565424
            ],
            [
              29.179687499999996,
              51.72702815704774
            ],
            [
              52.470703125,
              32.99023555965106
            ],
            [
              94.21875,
              27.137368359795584
            ],
            [
              124.27734374999999,
              55.27911529201561
            ],
            [
              83.935546875,
              68.64055504059381
            ],
            [
              56.42578125,
              63.54855223203644
            ]
          ]
        ]
      }
    }
  ]
}